<?xml version="1.0" encoding="UTF-8"?>
<svg width="32px" height="32px" viewBox="0 0 32 32" version="1.1" xmlns="http://www.w3.org/2000/svg" xmlns:xlink="http://www.w3.org/1999/xlink">
    <!-- Generator: Sketch 57.1 (83088) - https://sketch.com -->
    <title>arrow-left</title>
    <desc>Created with Sketch.</desc>
    <g id="arrow-left" stroke="none" stroke-width="1" fill="none" fill-rule="evenodd">
        <g id="Group-2" transform="translate(16.000000, 16.000000) scale(-1, 1) translate(-16.000000, -16.000000) ">
            <circle id="Oval" fill-opacity="0.8" fill="#FFFFFF" cx="16" cy="16" r="16"></circle>
            <g id="Group" transform="translate(5.000000, 8.500000)" stroke="#7F36DA" stroke-width="2">
                <polyline id="Path-2" points="14 0.5 20 7.5 14 14.5"></polyline>
                <path d="M20,7.5 L0,7.5" id="Path-3"></path>
            </g>
        </g>
    </g>
</svg>