<svg xmlns="http://www.w3.org/2000/svg" xmlns:xlink="http://www.w3.org/1999/xlink" width="64" height="64" viewBox="0 0 64 64">
    <defs>
        <rect id="a" width="64" height="64" rx="24"/>
    </defs>
    <g fill="none" fill-rule="evenodd">
        <mask id="b" fill="#fff">
            <use xlink:href="#a"/>
        </mask>
        <use fill="#FFF" xlink:href="#a"/>
        <path fill="#F5EEFF" d="M50.09 61.782C37.496 52.07 21 33.882 21 7.931c0-1.915.04-4.672.12-7.76C22.066.058 23.027 0 24 0h16c13.255 0 24 10.745 24 24v16c0 9.65-5.696 17.97-13.91 21.782z" mask="url(#b)"/>
        <g fill="#B375FF" fill-rule="nonzero" mask="url(#b)">
            <path d="M40 27v-2c0-1.103-.897-2-2-2H25c-1.206 0-3 .799-3 3v12c0 2.201 1.794 3 3 3h15a2 2 0 0 0 2-2V29a2 2 0 0 0-2-2zm-16-1c0-.805.55-.988 1-1h13v2H25.012C24.55 26.988 24 26.805 24 26zm14 11a1 1 0 0 1-1-1v-4a1 1 0 0 1 2 0v4a1 1 0 0 1-1 1z"/>
        </g>
    </g>
</svg>
