<svg xmlns="http://www.w3.org/2000/svg" width="24" height="24" viewBox="0 0 24 24">
    <path fill="#ADA6B5" fill-rule="nonzero" d="M20 7V5c0-1.103-.897-2-2-2H5c-1.206 0-3 .799-3 3v12c0 2.201 1.794 3 3 3h15a2 2 0 0 0 2-2V9a2 2 0 0 0-2-2zM4 6c0-.805.55-.988 1-1h13v2H5.012C4.55 6.988 4 6.805 4 6zm14 11a1 1 0 0 1-1-1v-4a1 1 0 0 1 2 0v4a1 1 0 0 1-1 1z"/>
</svg>
