<svg xmlns="http://www.w3.org/2000/svg" width="24" height="24" viewBox="0 0 24 24">
    <g fill="none" fill-rule="evenodd" stroke="#B375FF" stroke-width="2">
        <path d="M5 5l14 14M19 5L5 19"/>
    </g>
</svg>
